…
``` r
combinations_results <- critical_power(
  .data = demo_data, 
  power_output_column = "PO", 
  time_to_exhaustion_column = "TTE", 
  method = c("3-hyp", "2-hyp", "linear", "1/time"), 
  plot = TRUE, 
  all_combinations = TRUE,
  power_in_y_axis = FALSE
)

combinations_results
#> # A tibble: 74 x 13
#>    index method data  model    CP `CP SEE`   `W'` `W' SEE`  Pmax `Pmax SEE`
#>    <chr> <chr>  <lis> <lis> <dbl>    <dbl>  <dbl>    <dbl> <dbl>      <dbl>
#>  1 [1,2… 3-hyp  <tib… <nls>  260.      3.1 27410.    4794  1004.      835. 
#>  2 [1,2… 2-hyp  <tib… <nls>  262.      1.6 24174.    1889.   NA        NA  
#>  3 [1,2… linear <tib… <lm>   266.      3   20961.    2248.   NA        NA  
#>  4 [1,2… 1/time <tib… <lm>   274.      6.2 17784.    1160    NA        NA  
#>  5 [1,2… 3-hyp  <tib… <nls>  246.      6.2 42699.    7655   595.       70.2
#>  6 [1,2… 2-hyp  <tib… <nls>  261.      4.7 24814.    3691.   NA        NA  
#>  7 [1,2… linear <tib… <lm>   269.      5.9 19977.    2877.   NA        NA  
#>  8 [1,2… 1/time <tib… <lm>   278.      7.9 17194.    1339.   NA        NA  
#>  9 [1,2… 3-hyp  <tib… <nls>  255       1.9 36462.    3328.  627.       63.7
#> 10 [1,2… 2-hyp  <tib… <nls>  262.      2.2 24940.    2882.   NA        NA  
#> # … with 64 more rows, and 3 more variables: R2 <dbl>, RMSE <dbl>, plot <list>
```
…
