Get index of combinations — get_indexes • cyclingtools
…
    Value

    a tibble

    Examples

combinations <- get_combinations(demo_data, "PO", "TTE")

results_index <- get_indexes(demo_data, "PO", "TTE", combinations)

results_index

#> # A tibble: 26 x 2
#>    index       data            
#>    <glue>      <list>          
#>  1 [1,2,3,4,5] <tibble [5 × 2]>
#>  2 [1,2,3,4]   <tibble [4 × 2]>
#>  3 [1,2,3,5]   <tibble [4 × 2]>
#>  4 [1,2,4,5]   <tibble [4 × 2]>
#>  5 [1,3,4,5]   <tibble [4 × 2]>
#>  6 [2,3,4,5]   <tibble [4 × 2]>
#>  7 [1,2,3]     <tibble [3 × 2]>
#>  8 [1,2,4]     <tibble [3 × 2]>
#>  9 [1,2,5]     <tibble [3 × 2]>
#> 10 [1,3,4]     <tibble [3 × 2]>
#> # … with 16 more rows
…
